<svg width="239" height="76" xmlns="http://www.w3.org/2000/svg">
 <g>
  <title>background</title>
  <rect x="-1" y="-1" width="241" height="78" id="canvas_background" fill="none"/>
 </g>

 <g>
  <title>Layer 1</title>
  <g transform="rotate(180 118.98399353027344,37.907997131347656) " id="svg_2">
   <path d="m119,75c-42.752,0 -82.912,-16.672 -113.152,-46.88c-6.24,-6.24 -6.24,-16.384 0,-22.624s16.384,-6.24 22.624,0c48.352,48.384 132.64,48.384 181.024,0c6.24,-6.24 16.384,-6.24 22.624,0s6.24,16.384 0,22.624c-30.208,30.208 -70.368,46.88 -113.12,46.88z" fill="#ddbdad" id="svg_5"/>
  </g>
  <g id="svg_6"/>
  <g id="svg_7"/>
  <g id="svg_8"/>
  <g id="svg_9"/>
  <g id="svg_10"/>
  <g id="svg_11"/>
  <g id="svg_12"/>
  <g id="svg_13"/>
  <g id="svg_14"/>
  <g id="svg_15"/>
  <g id="svg_16"/>
  <g id="svg_17"/>
  <g id="svg_18"/>
  <g id="svg_19"/>
  <g id="svg_20"/>
 </g>
</svg>